{
    "prepare_queue": {
        "installed": [],
        "uninstalled": []
    },
    "config_munge": {
        "files": {}
    },
    "installed_plugins": {
        "cl.rmd.cordova.dialoggps": {
            "PACKAGE_NAME": "com.tapper.spontani"
        },
        "cordova-plugin-datepicker": {
            "PACKAGE_NAME": "com.tapper.spontani"
        },
        "cordova-plugin-fastrde-checkgps": {
            "PACKAGE_NAME": "com.tapper.spontani"
        },
        "cordova-plugin-geolocation": {
            "PACKAGE_NAME": "com.tapper.spontani"
        },
        "cordova-plugin-whitelist": {
            "PACKAGE_NAME": "com.tapper.spontani"
        },
        "cordova-plugin-x-socialsharing": {
            "PACKAGE_NAME": "com.tapper.spontani"
        },
        "cordova.plugins.diagnostic": {
            "PACKAGE_NAME": "com.tapper.spontani"
        },
        "onesignal-cordova-plugin": {
            "PACKAGE_NAME": "com.tapper.spontani"
        }
    },
    "dependent_plugins": {
        "cordova-plugin-compat": {
            "PACKAGE_NAME": "com.tapper.spontani"
        }
    }
}